…
This dataset has 7 variables and 2595176 observations. The key variables
include date, sonwfall, prcp, max temperature, and min temperature.

``` r
# find the most commonly observed values for snowfall

snowfall_counts = ny_noaa_df |>
  filter(!is.na(snow)) |>
  count(snow) |>
  arrange(desc(n))

snowfall_counts
```

    ## # A tibble: 251 × 2
    ##     snow       n
    ##    <int>   <int>
    ##  1     0 1167149
    ##  2    25   17542
    ##  3    13   13704
    ##  4    51   10352
    ##  5     5    5960
    ##  6    76    5894
    ##  7     8    5777
    ##  8     3    5614
    ##  9    38    5578
    ## 10   102    3743
    ## # ℹ 241 more rows
…
